C:\Users\sjimenez\Documents\NetBeansProjects\NombreSeccion\src\main\java\com\mycompany\nombreseccion\resources\JavaEE8Resource.java
C:\Users\sjimenez\Documents\NetBeansProjects\NombreSeccion\src\main\java\root\controlador\Controlador.java
C:\Users\sjimenez\Documents\NetBeansProjects\NombreSeccion\src\main\java\com\mycompany\nombreseccion\JAXRSConfiguration.java
C:\Users\sjimenez\Documents\NetBeansProjects\NombreSeccion\src\main\java\root\controlador\Interger.java
